^C:\USERS\GOREDEFEX\DESKTOP\GORE DEFEX\SCHOOL\WINTER - YEAR 2\PROG2400\ASSIGNMENTS\THREE\SORTING\SORTINGASSIGNMENT\SORTING\SORTASSIGNMENT\STDAFX.CPP
/c /ZI /nologo /W3 /WX- /sdl /Od /Oy- /D WIN32 /D _DEBUG /D _CONSOLE /D _UNICODE /D UNICODE /Gm /EHsc /RTC1 /MDd /GS /fp:precise /Zc:wchar_t /Zc:forScope /Yc"stdafx.h" /Fp"DEBUG\SORTASSIGNMENT.PCH" /Fo"DEBUG\\" /Fd"DEBUG\VC110.PDB" /Gd /TP /analyze- C:\USERS\GOREDEFEX\DESKTOP\GORE DEFEX\SCHOOL\WINTER - YEAR 2\PROG2400\ASSIGNMENTS\THREE\SORTING\SORTINGASSIGNMENT\SORTING\SORTASSIGNMENT\STDAFX.CPP
^C:\USERS\GOREDEFEX\DESKTOP\GORE DEFEX\SCHOOL\WINTER - YEAR 2\PROG2400\ASSIGNMENTS\THREE\SORTING\SORTINGASSIGNMENT\SORTING\SORTASSIGNMENT\BUSINESS.CPP
/c /ZI /nologo /W3 /WX- /sdl /Od /Oy- /D WIN32 /D _DEBUG /D _CONSOLE /D _UNICODE /D UNICODE /Gm /EHsc /RTC1 /MDd /GS /fp:precise /Zc:wchar_t /Zc:forScope /Yu"stdafx.h" /Fp"DEBUG\SORTASSIGNMENT.PCH" /Fo"DEBUG\\" /Fd"DEBUG\VC110.PDB" /Gd /TP /analyze- C:\USERS\GOREDEFEX\DESKTOP\GORE DEFEX\SCHOOL\WINTER - YEAR 2\PROG2400\ASSIGNMENTS\THREE\SORTING\SORTINGASSIGNMENT\SORTING\SORTASSIGNMENT\BUSINESS.CPP
^C:\USERS\GOREDEFEX\DESKTOP\GORE DEFEX\SCHOOL\WINTER - YEAR 2\PROG2400\ASSIGNMENTS\THREE\SORTING\SORTINGASSIGNMENT\SORTING\SORTASSIGNMENT\SORTASSIGNMENT.CPP
/c /ZI /nologo /W3 /WX- /sdl /Od /Oy- /D WIN32 /D _DEBUG /D _CONSOLE /D _UNICODE /D UNICODE /Gm /EHsc /RTC1 /MDd /GS /fp:precise /Zc:wchar_t /Zc:forScope /Yu"stdafx.h" /Fp"DEBUG\SORTASSIGNMENT.PCH" /Fo"DEBUG\\" /Fd"DEBUG\VC110.PDB" /Gd /TP /analyze- C:\USERS\GOREDEFEX\DESKTOP\GORE DEFEX\SCHOOL\WINTER - YEAR 2\PROG2400\ASSIGNMENTS\THREE\SORTING\SORTINGASSIGNMENT\SORTING\SORTASSIGNMENT\SORTASSIGNMENT.CPP
^C:\USERS\GOREDEFEX\DESKTOP\GORE DEFEX\SCHOOL\WINTER - YEAR 2\PROG2400\ASSIGNMENTS\THREE\SORTING\SORTINGASSIGNMENT\SORTING\SORTASSIGNMENT\SORTER.CPP
/c /ZI /nologo /W3 /WX- /sdl /Od /Oy- /D WIN32 /D _DEBUG /D _CONSOLE /D _UNICODE /D UNICODE /Gm /EHsc /RTC1 /MDd /GS /fp:precise /Zc:wchar_t /Zc:forScope /Yu"stdafx.h" /Fp"DEBUG\SORTASSIGNMENT.PCH" /Fo"DEBUG\\" /Fd"DEBUG\VC110.PDB" /Gd /TP /analyze- C:\USERS\GOREDEFEX\DESKTOP\GORE DEFEX\SCHOOL\WINTER - YEAR 2\PROG2400\ASSIGNMENTS\THREE\SORTING\SORTINGASSIGNMENT\SORTING\SORTASSIGNMENT\SORTER.CPP
^C:\USERS\GOREDEFEX\DESKTOP\GORE DEFEX\SCHOOL\WINTER - YEAR 2\PROG2400\ASSIGNMENTS\THREE\SORTING\SORTINGASSIGNMENT\SORTING\SORTASSIGNMENT\TIMERBOX.CPP
/c /ZI /nologo /W3 /WX- /sdl /Od /Oy- /D WIN32 /D _DEBUG /D _CONSOLE /D _UNICODE /D UNICODE /Gm /EHsc /RTC1 /MDd /GS /fp:precise /Zc:wchar_t /Zc:forScope /Yu"stdafx.h" /Fp"DEBUG\SORTASSIGNMENT.PCH" /Fo"DEBUG\\" /Fd"DEBUG\VC110.PDB" /Gd /TP /analyze- C:\USERS\GOREDEFEX\DESKTOP\GORE DEFEX\SCHOOL\WINTER - YEAR 2\PROG2400\ASSIGNMENTS\THREE\SORTING\SORTINGASSIGNMENT\SORTING\SORTASSIGNMENT\TIMERBOX.CPP
^C:\USERS\GOREDEFEX\DESKTOP\GORE DEFEX\SCHOOL\WINTER - YEAR 2\PROG2400\ASSIGNMENTS\THREE\SORTING\SORTINGASSIGNMENT\SORTING\SORTASSIGNMENT\FILEMANAGER.CPP
/c /ZI /nologo /W3 /WX- /sdl /Od /Oy- /D WIN32 /D _DEBUG /D _CONSOLE /D _UNICODE /D UNICODE /Gm /EHsc /RTC1 /MDd /GS /fp:precise /Zc:wchar_t /Zc:forScope /Yu"stdafx.h" /Fp"DEBUG\SORTASSIGNMENT.PCH" /Fo"DEBUG\\" /Fd"DEBUG\VC110.PDB" /Gd /TP /analyze- C:\USERS\GOREDEFEX\DESKTOP\GORE DEFEX\SCHOOL\WINTER - YEAR 2\PROG2400\ASSIGNMENTS\THREE\SORTING\SORTINGASSIGNMENT\SORTING\SORTASSIGNMENT\FILEMANAGER.CPP
