^C:\USERS\GOREDEFEX\DESKTOP\GORE DEFEX\SCHOOL\WINTER - YEAR 2\PROG2400\ASSIGNMENTS\FIVE\HASHINGASSIGNMENT\HASHINGASSIGNMENT\OMNITIER\DEBUG\BST.OBJ|C:\USERS\GOREDEFEX\DESKTOP\GORE DEFEX\SCHOOL\WINTER - YEAR 2\PROG2400\ASSIGNMENTS\FIVE\HASHINGASSIGNMENT\HASHINGASSIGNMENT\OMNITIER\DEBUG\DICTIONARYHASHING.OBJ|C:\USERS\GOREDEFEX\DESKTOP\GORE DEFEX\SCHOOL\WINTER - YEAR 2\PROG2400\ASSIGNMENTS\FIVE\HASHINGASSIGNMENT\HASHINGASSIGNMENT\OMNITIER\DEBUG\FILEMANAGER.OBJ|C:\USERS\GOREDEFEX\DESKTOP\GORE DEFEX\SCHOOL\WINTER - YEAR 2\PROG2400\ASSIGNMENTS\FIVE\HASHINGASSIGNMENT\HASHINGASSIGNMENT\OMNITIER\DEBUG\HASHTABLE.OBJ|C:\USERS\GOREDEFEX\DESKTOP\GORE DEFEX\SCHOOL\WINTER - YEAR 2\PROG2400\ASSIGNMENTS\FIVE\HASHINGASSIGNMENT\HASHINGASSIGNMENT\OMNITIER\DEBUG\STDAFX.OBJ|C:\USERS\GOREDEFEX\DESKTOP\GORE DEFEX\SCHOOL\WINTER - YEAR 2\PROG2400\ASSIGNMENTS\FIVE\HASHINGASSIGNMENT\HASHINGASSIGNMENT\OMNITIER\DEBUG\TIMERBOX.OBJ
C:\USERS\GOREDEFEX\DESKTOP\GORE DEFEX\SCHOOL\WINTER - YEAR 2\PROG2400\ASSIGNMENTS\FIVE\HASHINGASSIGNMENT\HASHINGASSIGNMENT\DEBUG\OMNITIER.ILK
C:\USERS\GOREDEFEX\DESKTOP\GORE DEFEX\SCHOOL\WINTER - YEAR 2\PROG2400\ASSIGNMENTS\FIVE\HASHINGASSIGNMENT\HASHINGASSIGNMENT\DEBUG\OMNITIER.EXE
C:\USERS\GOREDEFEX\DESKTOP\GORE DEFEX\SCHOOL\WINTER - YEAR 2\PROG2400\ASSIGNMENTS\FIVE\HASHINGASSIGNMENT\HASHINGASSIGNMENT\DEBUG\OMNITIER.PDB
