^C:\USERS\GOREDEFEX\DESKTOP\GORE DEFEX\SCHOOL\WINTER - YEAR 2\PROG2400\ASSIGNMENTS\THREE\SORTING\SORTINGASSIGNMENT\SORTING\SORTASSIGNMENT\STDAFX.CPP
C:\USERS\GOREDEFEX\DESKTOP\GORE DEFEX\SCHOOL\WINTER - YEAR 2\PROG2400\ASSIGNMENTS\THREE\SORTING\SORTINGASSIGNMENT\SORTING\SORTASSIGNMENT\DEBUG\SORTASSIGNMENT.PCH
C:\USERS\GOREDEFEX\DESKTOP\GORE DEFEX\SCHOOL\WINTER - YEAR 2\PROG2400\ASSIGNMENTS\THREE\SORTING\SORTINGASSIGNMENT\SORTING\SORTASSIGNMENT\DEBUG\STDAFX.OBJ
C:\USERS\GOREDEFEX\DESKTOP\GORE DEFEX\SCHOOL\WINTER - YEAR 2\PROG2400\ASSIGNMENTS\THREE\SORTING\SORTINGASSIGNMENT\SORTING\SORTASSIGNMENT\DEBUG\VC110.PDB
^C:\USERS\GOREDEFEX\DESKTOP\GORE DEFEX\SCHOOL\WINTER - YEAR 2\PROG2400\ASSIGNMENTS\THREE\SORTING\SORTINGASSIGNMENT\SORTING\SORTASSIGNMENT\BUSINESS.CPP|C:\USERS\GOREDEFEX\DESKTOP\GORE DEFEX\SCHOOL\WINTER - YEAR 2\PROG2400\ASSIGNMENTS\THREE\SORTING\SORTINGASSIGNMENT\SORTING\SORTASSIGNMENT\SORTASSIGNMENT.CPP|C:\USERS\GOREDEFEX\DESKTOP\GORE DEFEX\SCHOOL\WINTER - YEAR 2\PROG2400\ASSIGNMENTS\THREE\SORTING\SORTINGASSIGNMENT\SORTING\SORTASSIGNMENT\SORTER.CPP|C:\USERS\GOREDEFEX\DESKTOP\GORE DEFEX\SCHOOL\WINTER - YEAR 2\PROG2400\ASSIGNMENTS\THREE\SORTING\SORTINGASSIGNMENT\SORTING\SORTASSIGNMENT\TIMERBOX.CPP
C:\USERS\GOREDEFEX\DESKTOP\GORE DEFEX\SCHOOL\WINTER - YEAR 2\PROG2400\ASSIGNMENTS\THREE\SORTING\SORTINGASSIGNMENT\SORTING\SORTASSIGNMENT\DEBUG\BUSINESS.OBJ
C:\USERS\GOREDEFEX\DESKTOP\GORE DEFEX\SCHOOL\WINTER - YEAR 2\PROG2400\ASSIGNMENTS\THREE\SORTING\SORTINGASSIGNMENT\SORTING\SORTASSIGNMENT\DEBUG\SORTASSIGNMENT.OBJ
C:\USERS\GOREDEFEX\DESKTOP\GORE DEFEX\SCHOOL\WINTER - YEAR 2\PROG2400\ASSIGNMENTS\THREE\SORTING\SORTINGASSIGNMENT\SORTING\SORTASSIGNMENT\DEBUG\SORTER.OBJ
C:\USERS\GOREDEFEX\DESKTOP\GORE DEFEX\SCHOOL\WINTER - YEAR 2\PROG2400\ASSIGNMENTS\THREE\SORTING\SORTINGASSIGNMENT\SORTING\SORTASSIGNMENT\DEBUG\TIMERBOX.OBJ
^C:\USERS\GOREDEFEX\DESKTOP\GORE DEFEX\SCHOOL\WINTER - YEAR 2\PROG2400\ASSIGNMENTS\THREE\SORTING\SORTINGASSIGNMENT\SORTING\SORTASSIGNMENT\BUSINESS.CPP
C:\USERS\GOREDEFEX\DESKTOP\GORE DEFEX\SCHOOL\WINTER - YEAR 2\PROG2400\ASSIGNMENTS\THREE\SORTING\SORTINGASSIGNMENT\SORTING\SORTASSIGNMENT\DEBUG\VC110.PDB
C:\USERS\GOREDEFEX\DESKTOP\GORE DEFEX\SCHOOL\WINTER - YEAR 2\PROG2400\ASSIGNMENTS\THREE\SORTING\SORTINGASSIGNMENT\SORTING\SORTASSIGNMENT\DEBUG\BUSINESS.OBJ
^C:\USERS\GOREDEFEX\DESKTOP\GORE DEFEX\SCHOOL\WINTER - YEAR 2\PROG2400\ASSIGNMENTS\THREE\SORTING\SORTINGASSIGNMENT\SORTING\SORTASSIGNMENT\SORTASSIGNMENT.CPP
C:\USERS\GOREDEFEX\DESKTOP\GORE DEFEX\SCHOOL\WINTER - YEAR 2\PROG2400\ASSIGNMENTS\THREE\SORTING\SORTINGASSIGNMENT\SORTING\SORTASSIGNMENT\DEBUG\VC110.PDB
C:\USERS\GOREDEFEX\DESKTOP\GORE DEFEX\SCHOOL\WINTER - YEAR 2\PROG2400\ASSIGNMENTS\THREE\SORTING\SORTINGASSIGNMENT\SORTING\SORTASSIGNMENT\DEBUG\SORTASSIGNMENT.OBJ
^C:\USERS\GOREDEFEX\DESKTOP\GORE DEFEX\SCHOOL\WINTER - YEAR 2\PROG2400\ASSIGNMENTS\THREE\SORTING\SORTINGASSIGNMENT\SORTING\SORTASSIGNMENT\SORTER.CPP
C:\USERS\GOREDEFEX\DESKTOP\GORE DEFEX\SCHOOL\WINTER - YEAR 2\PROG2400\ASSIGNMENTS\THREE\SORTING\SORTINGASSIGNMENT\SORTING\SORTASSIGNMENT\DEBUG\VC110.PDB
C:\USERS\GOREDEFEX\DESKTOP\GORE DEFEX\SCHOOL\WINTER - YEAR 2\PROG2400\ASSIGNMENTS\THREE\SORTING\SORTINGASSIGNMENT\SORTING\SORTASSIGNMENT\DEBUG\SORTER.OBJ
^C:\USERS\GOREDEFEX\DESKTOP\GORE DEFEX\SCHOOL\WINTER - YEAR 2\PROG2400\ASSIGNMENTS\THREE\SORTING\SORTINGASSIGNMENT\SORTING\SORTASSIGNMENT\TIMERBOX.CPP
C:\USERS\GOREDEFEX\DESKTOP\GORE DEFEX\SCHOOL\WINTER - YEAR 2\PROG2400\ASSIGNMENTS\THREE\SORTING\SORTINGASSIGNMENT\SORTING\SORTASSIGNMENT\DEBUG\VC110.PDB
^C:\USERS\GOREDEFEX\DESKTOP\GORE DEFEX\SCHOOL\WINTER - YEAR 2\PROG2400\ASSIGNMENTS\THREE\SORTING\SORTINGASSIGNMENT\SORTING\SORTASSIGNMENT\SORTASSIGNMENT.CPP|C:\USERS\GOREDEFEX\DESKTOP\GORE DEFEX\SCHOOL\WINTER - YEAR 2\PROG2400\ASSIGNMENTS\THREE\SORTING\SORTINGASSIGNMENT\SORTING\SORTASSIGNMENT\TIMERBOX.CPP
C:\USERS\GOREDEFEX\DESKTOP\GORE DEFEX\SCHOOL\WINTER - YEAR 2\PROG2400\ASSIGNMENTS\THREE\SORTING\SORTINGASSIGNMENT\SORTING\SORTASSIGNMENT\DEBUG\TIMERBOX.OBJ
C:\USERS\GOREDEFEX\DESKTOP\GORE DEFEX\SCHOOL\WINTER - YEAR 2\PROG2400\ASSIGNMENTS\THREE\SORTING\SORTINGASSIGNMENT\SORTING\SORTASSIGNMENT\DEBUG\SORTASSIGNMENT.OBJ
^C:\USERS\GOREDEFEX\DESKTOP\GORE DEFEX\SCHOOL\WINTER - YEAR 2\PROG2400\ASSIGNMENTS\THREE\SORTING\SORTINGASSIGNMENT\SORTING\SORTASSIGNMENT\SORTASSIGNMENT.CPP|C:\USERS\GOREDEFEX\DESKTOP\GORE DEFEX\SCHOOL\WINTER - YEAR 2\PROG2400\ASSIGNMENTS\THREE\SORTING\SORTINGASSIGNMENT\SORTING\SORTASSIGNMENT\SORTER.CPP|C:\USERS\GOREDEFEX\DESKTOP\GORE DEFEX\SCHOOL\WINTER - YEAR 2\PROG2400\ASSIGNMENTS\THREE\SORTING\SORTINGASSIGNMENT\SORTING\SORTASSIGNMENT\TIMERBOX.CPP
C:\USERS\GOREDEFEX\DESKTOP\GORE DEFEX\SCHOOL\WINTER - YEAR 2\PROG2400\ASSIGNMENTS\THREE\SORTING\SORTINGASSIGNMENT\SORTING\SORTASSIGNMENT\DEBUG\SORTER.OBJ
^C:\USERS\GOREDEFEX\DESKTOP\GORE DEFEX\SCHOOL\WINTER - YEAR 2\PROG2400\ASSIGNMENTS\THREE\SORTING\SORTINGASSIGNMENT\SORTING\SORTASSIGNMENT\BUSINESS.CPP|C:\USERS\GOREDEFEX\DESKTOP\GORE DEFEX\SCHOOL\WINTER - YEAR 2\PROG2400\ASSIGNMENTS\THREE\SORTING\SORTINGASSIGNMENT\SORTING\SORTASSIGNMENT\SORTASSIGNMENT.CPP
C:\USERS\GOREDEFEX\DESKTOP\GORE DEFEX\SCHOOL\WINTER - YEAR 2\PROG2400\ASSIGNMENTS\THREE\SORTING\SORTINGASSIGNMENT\SORTING\SORTASSIGNMENT\DEBUG\BUSINESS.OBJ
^C:\USERS\GOREDEFEX\DESKTOP\GORE DEFEX\SCHOOL\WINTER - YEAR 2\PROG2400\ASSIGNMENTS\THREE\SORTING\SORTINGASSIGNMENT\SORTING\SORTASSIGNMENT\SORTASSIGNMENT.CPP|C:\USERS\GOREDEFEX\DESKTOP\GORE DEFEX\SCHOOL\WINTER - YEAR 2\PROG2400\ASSIGNMENTS\THREE\SORTING\SORTINGASSIGNMENT\SORTING\SORTASSIGNMENT\SORTER.CPP
C:\USERS\GOREDEFEX\DESKTOP\GORE DEFEX\SCHOOL\WINTER - YEAR 2\PROG2400\ASSIGNMENTS\THREE\SORTING\SORTINGASSIGNMENT\SORTING\SORTASSIGNMENT\DEBUG\SORTER.OBJ
^C:\USERS\GOREDEFEX\DESKTOP\GORE DEFEX\SCHOOL\WINTER - YEAR 2\PROG2400\ASSIGNMENTS\THREE\SORTING\SORTINGASSIGNMENT\SORTING\SORTASSIGNMENT\BUSINESS.CPP|C:\USERS\GOREDEFEX\DESKTOP\GORE DEFEX\SCHOOL\WINTER - YEAR 2\PROG2400\ASSIGNMENTS\THREE\SORTING\SORTINGASSIGNMENT\SORTING\SORTASSIGNMENT\SORTASSIGNMENT.CPP|C:\USERS\GOREDEFEX\DESKTOP\GORE DEFEX\SCHOOL\WINTER - YEAR 2\PROG2400\ASSIGNMENTS\THREE\SORTING\SORTINGASSIGNMENT\SORTING\SORTASSIGNMENT\SORTER.CPP
C:\USERS\GOREDEFEX\DESKTOP\GORE DEFEX\SCHOOL\WINTER - YEAR 2\PROG2400\ASSIGNMENTS\THREE\SORTING\SORTINGASSIGNMENT\SORTING\SORTASSIGNMENT\DEBUG\BUSINESS.OBJ
C:\USERS\GOREDEFEX\DESKTOP\GORE DEFEX\SCHOOL\WINTER - YEAR 2\PROG2400\ASSIGNMENTS\THREE\SORTING\SORTINGASSIGNMENT\SORTING\SORTASSIGNMENT\DEBUG\SORTER.OBJ
C:\USERS\GOREDEFEX\DESKTOP\GORE DEFEX\SCHOOL\WINTER - YEAR 2\PROG2400\ASSIGNMENTS\THREE\SORTING\SORTINGASSIGNMENT\SORTING\SORTASSIGNMENT\DEBUG\SORTASSIGNMENT.OBJ
^C:\USERS\GOREDEFEX\DESKTOP\GORE DEFEX\SCHOOL\WINTER - YEAR 2\PROG2400\ASSIGNMENTS\THREE\SORTING\SORTINGASSIGNMENT\SORTING\SORTASSIGNMENT\BUSINESS.CPP|C:\USERS\GOREDEFEX\DESKTOP\GORE DEFEX\SCHOOL\WINTER - YEAR 2\PROG2400\ASSIGNMENTS\THREE\SORTING\SORTINGASSIGNMENT\SORTING\SORTASSIGNMENT\SORTER.CPP
C:\USERS\GOREDEFEX\DESKTOP\GORE DEFEX\SCHOOL\WINTER - YEAR 2\PROG2400\ASSIGNMENTS\THREE\SORTING\SORTINGASSIGNMENT\SORTING\SORTASSIGNMENT\DEBUG\BUSINESS.OBJ
C:\USERS\GOREDEFEX\DESKTOP\GORE DEFEX\SCHOOL\WINTER - YEAR 2\PROG2400\ASSIGNMENTS\THREE\SORTING\SORTINGASSIGNMENT\SORTING\SORTASSIGNMENT\DEBUG\SORTER.OBJ
^C:\USERS\GOREDEFEX\DESKTOP\GORE DEFEX\SCHOOL\WINTER - YEAR 2\PROG2400\ASSIGNMENTS\THREE\SORTING\SORTINGASSIGNMENT\SORTING\SORTASSIGNMENT\BUSINESS.CPP|C:\USERS\GOREDEFEX\DESKTOP\GORE DEFEX\SCHOOL\WINTER - YEAR 2\PROG2400\ASSIGNMENTS\THREE\SORTING\SORTINGASSIGNMENT\SORTING\SORTASSIGNMENT\FILEMANAGER.CPP|C:\USERS\GOREDEFEX\DESKTOP\GORE DEFEX\SCHOOL\WINTER - YEAR 2\PROG2400\ASSIGNMENTS\THREE\SORTING\SORTINGASSIGNMENT\SORTING\SORTASSIGNMENT\SORTASSIGNMENT.CPP|C:\USERS\GOREDEFEX\DESKTOP\GORE DEFEX\SCHOOL\WINTER - YEAR 2\PROG2400\ASSIGNMENTS\THREE\SORTING\SORTINGASSIGNMENT\SORTING\SORTASSIGNMENT\SORTER.CPP
C:\USERS\GOREDEFEX\DESKTOP\GORE DEFEX\SCHOOL\WINTER - YEAR 2\PROG2400\ASSIGNMENTS\THREE\SORTING\SORTINGASSIGNMENT\SORTING\SORTASSIGNMENT\DEBUG\BUSINESS.OBJ
C:\USERS\GOREDEFEX\DESKTOP\GORE DEFEX\SCHOOL\WINTER - YEAR 2\PROG2400\ASSIGNMENTS\THREE\SORTING\SORTINGASSIGNMENT\SORTING\SORTASSIGNMENT\DEBUG\SORTASSIGNMENT.OBJ
C:\USERS\GOREDEFEX\DESKTOP\GORE DEFEX\SCHOOL\WINTER - YEAR 2\PROG2400\ASSIGNMENTS\THREE\SORTING\SORTINGASSIGNMENT\SORTING\SORTASSIGNMENT\DEBUG\SORTER.OBJ
C:\USERS\GOREDEFEX\DESKTOP\GORE DEFEX\SCHOOL\WINTER - YEAR 2\PROG2400\ASSIGNMENTS\THREE\SORTING\SORTINGASSIGNMENT\SORTING\SORTASSIGNMENT\DEBUG\FILEMANAGER.OBJ
^C:\USERS\GOREDEFEX\DESKTOP\GORE DEFEX\SCHOOL\WINTER - YEAR 2\PROG2400\ASSIGNMENTS\THREE\SORTING\SORTINGASSIGNMENT\SORTING\SORTASSIGNMENT\FILEMANAGER.CPP
C:\USERS\GOREDEFEX\DESKTOP\GORE DEFEX\SCHOOL\WINTER - YEAR 2\PROG2400\ASSIGNMENTS\THREE\SORTING\SORTINGASSIGNMENT\SORTING\SORTASSIGNMENT\DEBUG\VC110.PDB
C:\USERS\GOREDEFEX\DESKTOP\GORE DEFEX\SCHOOL\WINTER - YEAR 2\PROG2400\ASSIGNMENTS\THREE\SORTING\SORTINGASSIGNMENT\SORTING\SORTASSIGNMENT\DEBUG\FILEMANAGER.OBJ
